      <svg
        version="1.1"
        xmlns="http://www.w3.org/2000/svg"
        xmlns:xlink="http://www.w3.org/1999/xlink"
        viewBox="0 0 500 206"
        xml:space="preserve">
        <!-- eslint-disable max-len -->
        <path
          fill="#FFFFFF"
          d="M402.9,183.7h49.1c12.7,0,22.6-2.4,29.7-7.1c7-4.8,10.5-12.2,10.5-22.4c0-7.6-2-13.5-5.9-17.7
          c-4-4.2-8.8-7.5-14.6-9.8c-5.8-2.3-12.2-4.2-19.1-5.6c-6.9-1.4-13.3-2.9-19.1-4.6c-5.8-1.7-10.7-4-14.6-7c-4-3-5.9-7.3-5.9-12.9
          c0-6.3,2.1-11,6.2-14.2c4.1-3.1,8.7-4.7,13.7-4.7h50.8v-8.7H432c-4.7,0-8.8,0.8-12.5,2.3c-3.6,1.5-6.7,3.6-9.2,6.1
          c-2.5,2.5-4.4,5.4-5.7,8.8c-1.3,3.4-1.9,6.9-1.9,10.6c0,7.1,2,12.6,5.9,16.6c4,4,8.8,7,14.6,9.2c5.8,2.2,12.2,4,19.1,5.3
          c6.9,1.4,13.3,3,19.1,5c5.8,1.9,10.7,4.6,14.6,8.1c4,3.5,5.9,8.4,5.9,14.6c0,5.8-2.1,10.5-6.3,14c-4.2,3.6-11.4,5.3-21.5,5.3h-51.3
          V183.7z M382.7,183.7v-57.4c0-8.7-1.5-16.7-4.4-24c-2.9-7.3-6.9-13.6-11.9-18.9c-5-5.3-10.9-9.5-17.8-12.5c-6.9-3-14.2-4.5-21.9-4.5
          c-7.7,0-15,1.5-21.9,4.5c-6.9,3-12.8,7.1-17.8,12.5c-5,5.3-9,11.6-11.9,18.9c-2.9,7.3-4.4,15.2-4.4,24s1.5,16.7,4.4,24
          c2.9,7.3,6.9,13.6,11.9,18.9c5,5.3,10.9,9.5,17.8,12.5c6.9,3,14.2,4.5,21.9,4.5c4.4,0,8.4-0.5,12-1.5c3.6-1,6.9-2.2,9.9-3.6
          c3-1.5,5.6-3,7.9-4.7c2.3-1.7,4.3-3.3,6.1-4.7v-10.9c-5,5.2-10.3,9.2-15.9,12.2c-5.6,3-12.2,4.5-20,4.5c-5.8,0-11.5-1.3-17.1-3.9
          c-5.6-2.6-10.5-6.1-14.8-10.7c-4.3-4.5-7.7-9.9-10.4-16.1c-2.7-6.2-4-13-4-20.5c0-7.4,1.3-14.2,4-20.5c2.7-6.2,6.1-11.6,10.4-16.1
          c4.3-4.5,9.2-8.1,14.8-10.7c5.6-2.6,11.3-3.9,17.1-3.9c6.9,0,13.3,1.4,19,4.2c5.7,2.8,10.7,6.6,14.8,11.4c4.1,4.8,7.3,10.2,9.6,16.3
          c2.3,6.1,3.4,12.5,3.4,19.1v57.4H382.7z M142.6,14.2v112.1c0,8.7,1.5,16.7,4.4,24c2.9,7.3,6.9,13.6,11.9,18.9
          c5,5.3,10.9,9.5,17.8,12.5c6.9,3,14.2,4.5,21.9,4.5c7.7,0,15-1.5,21.9-4.5c6.9-3,12.8-7.1,17.8-12.5c5-5.3,9-11.6,11.9-18.9
          c2.9-7.3,4.4-15.3,4.4-24s-1.5-16.7-4.4-24c-2.9-7.3-6.9-13.6-11.9-18.9c-5-5.3-10.9-9.5-17.8-12.5c-6.9-3-14.2-4.5-21.9-4.5
          c-4.4,0-8.3,0.5-12,1.5c-3.6,1-6.9,2.2-9.9,3.6c-3,1.5-5.6,3-7.9,4.7c-2.3,1.7-4.3,3.3-6.1,4.7v10.9c5-5.2,10.3-9.2,15.9-12.2
          c5.6-3,12.2-4.5,20-4.5c5.8,0,11.5,1.3,17.1,3.9c5.6,2.6,10.5,6.1,14.8,10.7c4.3,4.5,7.7,9.9,10.4,16.1c2.7,6.2,4,13,4,20.5
          c0,7.4-1.3,14.2-4,20.5c-2.7,6.2-6.1,11.6-10.4,16.1c-4.3,4.5-9.2,8.1-14.8,10.7c-5.6,2.6-11.3,3.9-17.1,3.9c-6.9,0-13.3-1.4-19-4.2
          c-5.7-2.8-10.6-6.6-14.8-11.3c-4.1-4.7-7.3-10.1-9.6-16.3c-2.3-6.2-3.4-12.6-3.4-19.2V14.2H142.6z M122.2,183.7v-57.4
          c0-8.7-1.5-16.7-4.4-24C115,95.1,111,88.8,106,83.4C101,78.1,95.1,74,88.2,71c-6.9-3-14.2-4.5-21.9-4.5c-7.7,0-15,1.5-21.9,4.5
          c-6.9,3-12.8,7.1-17.8,12.5c-5,5.3-9,11.6-11.9,18.9c-2.9,7.3-4.4,15.2-4.4,24s1.5,16.7,4.4,24c2.9,7.3,6.9,13.6,11.9,18.9
          c5,5.3,10.9,9.5,17.8,12.5c6.9,3,14.2,4.5,21.9,4.5c4.4,0,8.4-0.5,12-1.5c3.6-1,6.9-2.2,9.9-3.6c3-1.5,5.6-3,7.9-4.7
          c2.3-1.7,4.3-3.3,6.1-4.7v-10.9c-5,5.2-10.3,9.2-15.9,12.2c-5.6,3-12.2,4.5-20,4.5c-5.8,0-11.5-1.3-17.1-3.9
          c-5.6-2.6-10.5-6.1-14.8-10.7c-4.3-4.5-7.7-9.9-10.4-16.1c-2.7-6.2-4-13-4-20.5c0-7.4,1.3-14.2,4-20.5c2.7-6.2,6.1-11.6,10.4-16.1
          c4.3-4.5,9.2-8.1,14.8-10.7c5.6-2.6,11.3-3.9,17.1-3.9c6.9,0,13.3,1.4,19,4.2c5.7,2.8,10.7,6.6,14.8,11.4c4.1,4.8,7.3,10.2,9.6,16.3
          c2.3,6.1,3.4,12.5,3.4,19.1v57.4H122.2z"/>
          <!-- eslint-enable max-len -->
      </svg>